Waveforms_6.vcd
$date
     Jun 15, 2024       12:04:53
$end

$version
 SystemC 2.3.1-Accellera --- Jun  8 2024 16:07:25
$end

$timescale
     1 ns
$end

$scope module SystemC $end
$var wire    1  aaaaa  clk       $end
$var wire    1  aaaab  rst       $end
$var wire    1  aaaac  start       $end
$var wire    1  aaaad  done       $end
$var wire    8  aaaae  relu1_out0_val [7:0]  $end
$var wire    8  aaaaf  relu1_out1_val [7:0]  $end
$var wire    8  aaaag  relu1_out2_val [7:0]  $end
$var wire    8  aaaah  relu1_out3_val [7:0]  $end
$var wire    8  aaaai  relu2_out0_val [7:0]  $end
$var wire    8  aaaaj  relu2_out1_val [7:0]  $end
$var wire    8  aaaak  relu2_out2_val [7:0]  $end
$var wire    8  aaaal  relu2_out3_val [7:0]  $end
$var wire    8  aaaam  relu3_out0_val [7:0]  $end
$var wire    8  aaaan  relu3_out1_val [7:0]  $end
$var wire    8  aaaao  relu3_out2_val [7:0]  $end
$var wire    8  aaaap  relu3_out3_val [7:0]  $end
$var wire    8  aaaaq  MaxPool1_val [7:0]  $end
$var wire    8  aaaar  MaxPool2_val [7:0]  $end
$var wire    8  aaaas  MaxPool3_val [7:0]  $end
$var wire    3  aaaat  final_result [2:0]  $end
$upscope $end
$enddefinitions  $end

$comment
All initial values are dumped below at time 0 sec = 0 timescale units.
$end

$dumpvars
1aaaaa
1aaaab
0aaaac
0aaaad
b0 aaaae
b0 aaaaf
b0 aaaag
b0 aaaah
b0 aaaai
b0 aaaaj
b0 aaaak
b0 aaaal
b0 aaaam
b0 aaaan
b0 aaaao
b0 aaaap
b0 aaaaq
b0 aaaar
b0 aaaas
b1 aaaat
$end

#10
0aaaaa

#20
1aaaaa
0aaaab

#30
0aaaaa

#40
1aaaaa

#50
0aaaaa

#60
1aaaaa

#70
0aaaaa

#80
1aaaaa

#90
0aaaaa

#100
1aaaaa

#110
0aaaaa

#120
1aaaaa

#130
0aaaaa

#140
1aaaaa

#150
0aaaaa

#160
1aaaaa

#170
0aaaaa

#180
1aaaaa

#190
0aaaaa

#200
1aaaaa

#210
0aaaaa

#220
1aaaaa

#230
0aaaaa

#240
1aaaaa

#250
0aaaaa

#260
1aaaaa

#270
0aaaaa

#280
1aaaaa

#290
0aaaaa

#300
1aaaaa

#310
0aaaaa

#320
1aaaaa

#330
0aaaaa

#340
1aaaaa

#350
0aaaaa

#360
1aaaaa

#370
0aaaaa

#380
1aaaaa

#390
0aaaaa

#400
1aaaaa

#410
0aaaaa

#420
1aaaaa

#430
0aaaaa

#440
1aaaaa

#450
0aaaaa

#460
1aaaaa

#470
0aaaaa

#480
1aaaaa

#490
0aaaaa

#500
1aaaaa

#510
0aaaaa

#520
1aaaaa
1aaaac

#530
0aaaaa

#540
1aaaaa
0aaaac

#550
0aaaaa

#560
1aaaaa

#570
0aaaaa

#580
1aaaaa

#590
0aaaaa

#600
1aaaaa

#610
0aaaaa

#620
1aaaaa

#630
0aaaaa

#640
1aaaaa

#650
0aaaaa

#660
1aaaaa

#670
0aaaaa

#680
1aaaaa

#690
0aaaaa

#700
1aaaaa

#710
0aaaaa

#720
1aaaaa

#730
0aaaaa

#740
1aaaaa

#750
0aaaaa

#760
1aaaaa

#770
0aaaaa

#780
1aaaaa

#790
0aaaaa

#800
1aaaaa

#810
0aaaaa

#820
1aaaaa

#830
0aaaaa

#840
1aaaaa

#850
0aaaaa

#860
1aaaaa

#870
0aaaaa

#880
1aaaaa

#890
0aaaaa

#900
1aaaaa

#910
0aaaaa

#920
1aaaaa

#930
0aaaaa

#940
1aaaaa

#950
0aaaaa

#960
1aaaaa

#970
0aaaaa

#980
1aaaaa

#990
0aaaaa

#1000
1aaaaa

#1010
0aaaaa

#1020
1aaaaa

#1030
0aaaaa

#1040
1aaaaa

#1050
0aaaaa

#1060
1aaaaa

#1070
0aaaaa

#1080
1aaaaa

#1090
0aaaaa

#1100
1aaaaa

#1110
0aaaaa

#1120
1aaaaa

#1130
0aaaaa

#1140
1aaaaa

#1150
0aaaaa

#1160
1aaaaa

#1170
0aaaaa

#1180
1aaaaa

#1190
0aaaaa

#1200
1aaaaa

#1210
0aaaaa

#1220
1aaaaa

#1230
0aaaaa

#1240
1aaaaa

#1250
0aaaaa

#1260
1aaaaa

#1270
0aaaaa

#1280
1aaaaa

#1290
0aaaaa

#1300
1aaaaa

#1310
0aaaaa

#1320
1aaaaa

#1330
0aaaaa

#1340
1aaaaa

#1350
0aaaaa

#1360
1aaaaa

#1370
0aaaaa

#1380
1aaaaa

#1390
0aaaaa

#1400
1aaaaa

#1410
0aaaaa

#1420
1aaaaa

#1430
0aaaaa

#1440
1aaaaa

#1450
0aaaaa

#1460
1aaaaa

#1470
0aaaaa

#1480
1aaaaa

#1490
0aaaaa

#1500
1aaaaa

#1510
0aaaaa

#1520
1aaaaa

#1530
0aaaaa

#1540
1aaaaa

#1550
0aaaaa

#1560
1aaaaa

#1570
0aaaaa

#1580
1aaaaa

#1590
0aaaaa

#1600
1aaaaa

#1610
0aaaaa

#1620
1aaaaa

#1630
0aaaaa

#1640
1aaaaa

#1650
0aaaaa

#1660
1aaaaa
b1 aaaae
b1 aaaaf
b100 aaaag
b10 aaaah
b100 aaaaq

#1670
0aaaaa

#1680
1aaaaa

#1690
0aaaaa

#1700
1aaaaa

#1710
0aaaaa

#1720
1aaaaa

#1730
0aaaaa

#1740
1aaaaa

#1750
0aaaaa

#1760
1aaaaa

#1770
0aaaaa

#1780
1aaaaa

#1790
0aaaaa

#1800
1aaaaa

#1810
0aaaaa

#1820
1aaaaa

#1830
0aaaaa

#1840
1aaaaa

#1850
0aaaaa

#1860
1aaaaa

#1870
0aaaaa

#1880
1aaaaa

#1890
0aaaaa

#1900
1aaaaa

#1910
0aaaaa

#1920
1aaaaa

#1930
0aaaaa

#1940
1aaaaa

#1950
0aaaaa

#1960
1aaaaa

#1970
0aaaaa

#1980
1aaaaa

#1990
0aaaaa

#2000
1aaaaa

#2010
0aaaaa

#2020
1aaaaa

#2030
0aaaaa

#2040
1aaaaa

#2050
0aaaaa

#2060
1aaaaa

#2070
0aaaaa

#2080
1aaaaa

#2090
0aaaaa

#2100
1aaaaa

#2110
0aaaaa

#2120
1aaaaa

#2130
0aaaaa

#2140
1aaaaa

#2150
0aaaaa

#2160
1aaaaa

#2170
0aaaaa

#2180
1aaaaa

#2190
0aaaaa

#2200
1aaaaa

#2210
0aaaaa

#2220
1aaaaa

#2230
0aaaaa

#2240
1aaaaa

#2250
0aaaaa

#2260
1aaaaa

#2270
0aaaaa

#2280
1aaaaa

#2290
0aaaaa

#2300
1aaaaa

#2310
0aaaaa

#2320
1aaaaa

#2330
0aaaaa

#2340
1aaaaa

#2350
0aaaaa

#2360
1aaaaa

#2370
0aaaaa

#2380
1aaaaa

#2390
0aaaaa

#2400
1aaaaa

#2410
0aaaaa

#2420
1aaaaa

#2430
0aaaaa

#2440
1aaaaa

#2450
0aaaaa

#2460
1aaaaa

#2470
0aaaaa

#2480
1aaaaa

#2490
0aaaaa

#2500
1aaaaa

#2510
0aaaaa

#2520
1aaaaa

#2530
0aaaaa

#2540
1aaaaa

#2550
0aaaaa

#2560
1aaaaa

#2570
0aaaaa

#2580
1aaaaa

#2590
0aaaaa

#2600
1aaaaa

#2610
0aaaaa

#2620
1aaaaa

#2630
0aaaaa

#2640
1aaaaa

#2650
0aaaaa

#2660
1aaaaa

#2670
0aaaaa

#2680
1aaaaa

#2690
0aaaaa

#2700
1aaaaa

#2710
0aaaaa

#2720
1aaaaa

#2730
0aaaaa

#2740
1aaaaa

#2750
0aaaaa

#2760
1aaaaa

#2770
0aaaaa

#2780
1aaaaa

#2790
0aaaaa

#2800
1aaaaa

#2810
0aaaaa

#2820
1aaaaa
b1 aaaai
b11 aaaaj
b1 aaaak
b1 aaaal
b11 aaaar

#2830
0aaaaa

#2840
1aaaaa

#2850
0aaaaa

#2860
1aaaaa

#2870
0aaaaa

#2880
1aaaaa

#2890
0aaaaa

#2900
1aaaaa

#2910
0aaaaa

#2920
1aaaaa

#2930
0aaaaa

#2940
1aaaaa

#2950
0aaaaa

#2960
1aaaaa

#2970
0aaaaa

#2980
1aaaaa

#2990
0aaaaa

#3000
1aaaaa

#3010
0aaaaa

#3020
1aaaaa

#3030
0aaaaa

#3040
1aaaaa

#3050
0aaaaa

#3060
1aaaaa

#3070
0aaaaa

#3080
1aaaaa

#3090
0aaaaa

#3100
1aaaaa

#3110
0aaaaa

#3120
1aaaaa

#3130
0aaaaa

#3140
1aaaaa

#3150
0aaaaa

#3160
1aaaaa

#3170
0aaaaa

#3180
1aaaaa

#3190
0aaaaa

#3200
1aaaaa

#3210
0aaaaa

#3220
1aaaaa

#3230
0aaaaa

#3240
1aaaaa

#3250
0aaaaa

#3260
1aaaaa

#3270
0aaaaa

#3280
1aaaaa

#3290
0aaaaa

#3300
1aaaaa

#3310
0aaaaa

#3320
1aaaaa

#3330
0aaaaa

#3340
1aaaaa

#3350
0aaaaa

#3360
1aaaaa

#3370
0aaaaa

#3380
1aaaaa

#3390
0aaaaa

#3400
1aaaaa

#3410
0aaaaa

#3420
1aaaaa

#3430
0aaaaa

#3440
1aaaaa

#3450
0aaaaa

#3460
1aaaaa

#3470
0aaaaa

#3480
1aaaaa

#3490
0aaaaa

#3500
1aaaaa

#3510
0aaaaa

#3520
1aaaaa

#3530
0aaaaa

#3540
1aaaaa

#3550
0aaaaa

#3560
1aaaaa

#3570
0aaaaa

#3580
1aaaaa

#3590
0aaaaa

#3600
1aaaaa

#3610
0aaaaa

#3620
1aaaaa

#3630
0aaaaa

#3640
1aaaaa

#3650
0aaaaa

#3660
1aaaaa

#3670
0aaaaa

#3680
1aaaaa

#3690
0aaaaa

#3700
1aaaaa

#3710
0aaaaa

#3720
1aaaaa

#3730
0aaaaa

#3740
1aaaaa

#3750
0aaaaa

#3760
1aaaaa

#3770
0aaaaa

#3780
1aaaaa

#3790
0aaaaa

#3800
1aaaaa

#3810
0aaaaa

#3820
1aaaaa

#3830
0aaaaa

#3840
1aaaaa

#3850
0aaaaa

#3860
1aaaaa

#3870
0aaaaa

#3880
1aaaaa

#3890
0aaaaa

#3900
1aaaaa

#3910
0aaaaa

#3920
1aaaaa

#3930
0aaaaa

#3940
1aaaaa

#3950
0aaaaa

#3960
1aaaaa

#3970
0aaaaa

#3980
1aaaaa
b1 aaaao
b1 aaaas

#3990
0aaaaa
1aaaad

#4000
1aaaaa

#4010
0aaaaa
0aaaad

